sim/modelsim/transcript
# source run_simulation.tcl 
# vsim -voptargs=+acc -t ps work.serv_axi_system_tb 
# Loading work.serv_axi_system_tb
# Loading work.serv_axi_system
# Loading work.serv_axi_wrapper
# Loading work.serv_rf_top
# Loading work.serv_rf_ram_if
# Loading work.serv_rf_ram
# Loading work.serv_top
# Loading work.serv_state
# Loading work.serv_decode
# Loading work.serv_immdec
# Loading work.serv_bufreg
# Loading work.serv_bufreg2
# Loading work.serv_ctrl
# Loading work.serv_alu
# Loading work.serv_rf_if
# Loading work.serv_mem_if
# Loading work.wb2axi_read
# Loading work.wb2axi_write
# Loading work.AXI_Interconnect_Full
# Loading work.AW_Channel_Controller_Top
# Loading work.Qos_Arbiter
# Loading work.Faling_Edge_Detc
# Loading work.Raising_Edge_Det
# Loading work.AW_HandShake_Checker
# Loading work.Demux_1_2
# Loading work.AW_MUX_2_1
# Loading work.Write_Addr_Channel_Dec
# Loading work.WD_Channel_Controller_Top
# Loading work.Queue
# Loading work.WD_HandShake
# Loading work.WD_MUX_2_1
# Loading work.BR_Channel_Controller_Top
# Loading work.WR_HandShake
# Loading work.Write_Resp_Channel_Arb
# Loading work.BReady_MUX_2_1
# Loading work.Write_Resp_Channel_Dec
# Loading work.AR_Channel_Controller_Top
# Loading work.Read_Arbiter
# Loading work.Mux_2x1
# Loading work.Read_Addr_Channel_Dec
# Loading work.Controller
# Loading work.Demux_1x4
# Loading work.Mux_4x1
# Loading work.axi_rom_slave
# Loading work.axi_memory_slave
# Loading work.serv_csr
# ** Warning: (vsim-8607) D:/AXI/src/cores/serv/rtl/serv_csr.v(93): Non-positive replication multiplier inside concat. Replication will be ignored.
# 
# ** Warning: (vsim-WLF-5000) WLF file currently in use: vsim.wlf
# 
#           File in use by: phann  Hostname: PHANNGOCDUCTHO  ProcessID: 19212
# 
#           Attempting to use alternate WLF file "./wlftv8tey9".
# ** Warning: (vsim-WLF-5001) Could not open WLF file: vsim.wlf
# 
#           Using alternate file: ./wlftv8tey9
# 
# INFO: Loaded memory from file: D:/AXI/tb/wrapper_tb/test_program.hex
# INFO: Memory[0] = 0x00500093, Memory[1] = 0x00a00113, Memory[2] = 0x002081b3
# [105000] wb2axi_read: wb_cyc RISING EDGE! wb_adr=0x00000000, cnt_done=0
# [105000] wb2axi_read: wb_cyc ASSERTED! wb_adr=0x00000000, cnt_done=0
# [105000] wb2axi_read: wb_adr changed: 0xffffffff -> 0x00000000 (cycle 0, state=0, cnt_done=0)
# [105000] wb2axi_read: Cycle 0 - wb_cyc=1, wb_ack=0, cnt_done=0, wb_adr=0x00000000, addr_captured=0, M_AXI_arvalid=0
# [105000] wb2axi_read: Key cycle 0 - wb_adr=0x00000000 (binary: 00000000000000000000000000000000)
# [115000] wb2axi_read: Cycle 1 - wb_cyc=1, wb_ack=0, cnt_done=0, wb_adr=0x00000000, addr_captured=0, M_AXI_arvalid=0
# [125000] wb2axi_read: Cycle 2 - wb_cyc=1, wb_ack=0, cnt_done=0, wb_adr=0x00000000, addr_captured=0, M_AXI_arvalid=0
# [135000] wb2axi_read: Cycle 3 - wb_cyc=1, wb_ack=0, cnt_done=0, wb_adr=0x00000000, addr_captured=0, M_AXI_arvalid=0
# [145000] wb2axi_read: Cycle 4 - wb_cyc=1, wb_ack=0, cnt_done=0, wb_adr=0x00000000, addr_captured=0, M_AXI_arvalid=0
# [155000] wb2axi_read: Cycle 5 - wb_cyc=1, wb_ack=0, cnt_done=0, wb_adr=0x00000000, addr_captured=0, M_AXI_arvalid=0
# [165000] wb2axi_read: Cycle 6 - wb_cyc=1, wb_ack=0, cnt_done=0, wb_adr=0x00000000, addr_captured=0, M_AXI_arvalid=0
# [175000] wb2axi_read: Cycle 7 - wb_cyc=1, wb_ack=0, cnt_done=0, wb_adr=0x00000000, addr_captured=0, M_AXI_arvalid=0
# [185000] wb2axi_read: Cycle 8 - wb_cyc=1, wb_ack=0, cnt_done=0, wb_adr=0x00000000, addr_captured=0, M_AXI_arvalid=0
# [195000] wb2axi_read: Cycle 9 - wb_cyc=1, wb_ack=0, cnt_done=0, wb_adr=0x00000000, addr_captured=0, M_AXI_arvalid=0
# =========================================
# SERV AXI System Testbench Started
# =========================================
# [205000] wb2axi_read: Cycle 10 - wb_cyc=1, wb_ack=0, cnt_done=0, wb_adr=0x00000000, addr_captured=0, M_AXI_arvalid=0
# [215000] wb2axi_read: Cycle 11 - wb_cyc=1, wb_ack=0, cnt_done=0, wb_adr=0x00000000, addr_captured=0, M_AXI_arvalid=0
# [225000] wb2axi_read: Cycle 12 - wb_cyc=1, wb_ack=0, cnt_done=0, wb_adr=0x00000000, addr_captured=0, M_AXI_arvalid=0
# [235000] wb2axi_read: Cycle 13 - wb_cyc=1, wb_ack=0, cnt_done=0, wb_adr=0x00000000, addr_captured=0, M_AXI_arvalid=0
# [245000] wb2axi_read: Cycle 14 - wb_cyc=1, wb_ack=0, cnt_done=0, wb_adr=0x00000000, addr_captured=0, M_AXI_arvalid=0
# [255000] wb2axi_read: Cycle 15 - wb_cyc=1, wb_ack=0, cnt_done=0, wb_adr=0x00000000, addr_captured=0, M_AXI_arvalid=0
# [265000] wb2axi_read: Cycle 16 - wb_cyc=1, wb_ack=0, cnt_done=0, wb_adr=0x00000000, addr_captured=0, M_AXI_arvalid=0
# [275000] wb2axi_read: Cycle 17 - wb_cyc=1, wb_ack=0, cnt_done=0, wb_adr=0x00000000, addr_captured=0, M_AXI_arvalid=0
# [285000] wb2axi_read: Cycle 18 - wb_cyc=1, wb_ack=0, cnt_done=0, wb_adr=0x00000000, addr_captured=0, M_AXI_arvalid=0
# [295000] wb2axi_read: Cycle 19 - wb_cyc=1, wb_ack=0, cnt_done=0, wb_adr=0x00000000, addr_captured=0, M_AXI_arvalid=0
# [305000] wb2axi_read: Cycle 20 - wb_cyc=1, wb_ack=0, cnt_done=0, wb_adr=0x00000000, addr_captured=0, M_AXI_arvalid=0
# [315000] wb2axi_read: Cycle 21 - wb_cyc=1, wb_ack=0, cnt_done=0, wb_adr=0x00000000, addr_captured=0, M_AXI_arvalid=0
# [325000] wb2axi_read: Cycle 22 - wb_cyc=1, wb_ack=0, cnt_done=0, wb_adr=0x00000000, addr_captured=0, M_AXI_arvalid=0
# [335000] wb2axi_read: Cycle 23 - wb_cyc=1, wb_ack=0, cnt_done=0, wb_adr=0x00000000, addr_captured=0, M_AXI_arvalid=0
# [345000] wb2axi_read: Cycle 24 - wb_cyc=1, wb_ack=0, cnt_done=0, wb_adr=0x00000000, addr_captured=0, M_AXI_arvalid=0
# [355000] wb2axi_read: Cycle 25 - wb_cyc=1, wb_ack=0, cnt_done=0, wb_adr=0x00000000, addr_captured=0, M_AXI_arvalid=0
# [365000] wb2axi_read: Cycle 26 - wb_cyc=1, wb_ack=0, cnt_done=0, wb_adr=0x00000000, addr_captured=0, M_AXI_arvalid=0
# [375000] wb2axi_read: Cycle 27 - wb_cyc=1, wb_ack=0, cnt_done=0, wb_adr=0x00000000, addr_captured=0, M_AXI_arvalid=0
# [385000] wb2axi_read: Cycle 28 - wb_cyc=1, wb_ack=0, cnt_done=0, wb_adr=0x00000000, addr_captured=0, M_AXI_arvalid=0
# [395000] wb2axi_read: Cycle 29 - wb_cyc=1, wb_ack=0, cnt_done=0, wb_adr=0x00000000, addr_captured=0, M_AXI_arvalid=0
# [405000] wb2axi_read: Cycle 30 - wb_cyc=1, wb_ack=0, cnt_done=0, wb_adr=0x00000000, addr_captured=0, M_AXI_arvalid=0
# [415000] wb2axi_read: Cycle 31 - wb_cyc=1, wb_ack=0, cnt_done=0, wb_adr=0x00000000, addr_captured=0, M_AXI_arvalid=0
# [415000] wb2axi_read: Key cycle 31 - wb_adr=0x00000000 (binary: 00000000000000000000000000000000)
# [425000] wb2axi_read: Status - wb_cyc=1, cnt_done=0, addr_captured=0, wb_adr=0x00000000
# [425000] wb2axi_read: Cycle 32 - wb_cyc=1, wb_ack=0, cnt_done=0, wb_adr=0x00000000, addr_captured=0, M_AXI_arvalid=0
# [425000] wb2axi_read: Key cycle 32 - wb_adr=0x00000000 (binary: 00000000000000000000000000000000)
# [435000] wb2axi_read: Cycle 33 - wb_cyc=1, wb_ack=0, cnt_done=0, wb_adr=0x00000000, addr_captured=0, M_AXI_arvalid=0
# [435000] wb2axi_read: Key cycle 33 - wb_adr=0x00000000 (binary: 00000000000000000000000000000000)
# [435000] wb2axi_read: Capturing address (33 cycles elapsed): wb_adr=0x00000000, masked=0x00000000 (cycle 33)
# [445000] wb2axi_read: Cycle 34 - wb_cyc=1, wb_ack=0, cnt_done=0, wb_adr=0x00000000, addr_captured=1, M_AXI_arvalid=1
# [455000] Memory Read: addr=0x00000000, mem_idx=0, data=0x00500093
# [455000] Instruction Fetch: Address = 0x00000000
# [465000] Memory Read: addr=0x00000000, mem_idx=0, data=0x00500093
# [465000] Instruction Read: Data = 0x00500093
# [485000] wb2axi_read: wb_cyc FALLING EDGE! cycle_count=35, addr_captured=1
# [675000] wb2axi_read: wb_cyc RISING EDGE! wb_adr=0x00060000, cnt_done=0
# [675000] wb2axi_read: wb_cyc ASSERTED! wb_adr=0x00060000, cnt_done=0
# [675000] wb2axi_read: wb_adr changed: 0x00000000 -> 0x00060000 (cycle 0, state=0, cnt_done=0)
# [675000] wb2axi_read: Cycle 0 - wb_cyc=1, wb_ack=0, cnt_done=0, wb_adr=0x00060000, addr_captured=0, M_AXI_arvalid=0
# [675000] wb2axi_read: Key cycle 0 - wb_adr=0x00060000 (binary: 00000000000001100000000000000000)
# [685000] wb2axi_read: wb_adr changed: 0x00060000 -> 0x00030000 (cycle 1, state=0, cnt_done=0)
# [685000] wb2axi_read: Cycle 1 - wb_cyc=1, wb_ack=0, cnt_done=0, wb_adr=0x00030000, addr_captured=0, M_AXI_arvalid=0
# [695000] wb2axi_read: wb_adr changed: 0x00030000 -> 0x80018000 (cycle 2, state=0, cnt_done=0)
# [695000] wb2axi_read: Cycle 2 - wb_cyc=1, wb_ack=0, cnt_done=0, wb_adr=0x80018000, addr_captured=0, M_AXI_arvalid=0
# [705000] wb2axi_read: wb_adr changed: 0x80018000 -> 0x4000c000 (cycle 3, state=0, cnt_done=0)
# [705000] wb2axi_read: Cycle 3 - wb_cyc=1, wb_ack=0, cnt_done=0, wb_adr=0x4000c000, addr_captured=0, M_AXI_arvalid=0
# [715000] wb2axi_read: wb_adr changed: 0x4000c000 -> 0x20006000 (cycle 4, state=0, cnt_done=0)
# [715000] wb2axi_read: Cycle 4 - wb_cyc=1, wb_ack=0, cnt_done=0, wb_adr=0x20006000, addr_captured=0, M_AXI_arvalid=0
# [725000] wb2axi_read: wb_adr changed: 0x20006000 -> 0x10003000 (cycle 5, state=0, cnt_done=0)
# [725000] wb2axi_read: Cycle 5 - wb_cyc=1, wb_ack=0, cnt_done=0, wb_adr=0x10003000, addr_captured=0, M_AXI_arvalid=0
# [735000] wb2axi_read: wb_adr changed: 0x10003000 -> 0x08001800 (cycle 6, state=0, cnt_done=0)
# [735000] wb2axi_read: Cycle 6 - wb_cyc=1, wb_ack=0, cnt_done=0, wb_adr=0x08001800, addr_captured=0, M_AXI_arvalid=0
# [745000] wb2axi_read: wb_adr changed: 0x08001800 -> 0x04000c00 (cycle 7, state=0, cnt_done=0)
# [745000] wb2axi_read: Cycle 7 - wb_cyc=1, wb_ack=0, cnt_done=0, wb_adr=0x04000c00, addr_captured=0, M_AXI_arvalid=0
# [755000] wb2axi_read: wb_adr changed: 0x04000c00 -> 0x02000600 (cycle 8, state=0, cnt_done=0)
# [755000] wb2axi_read: Cycle 8 - wb_cyc=1, wb_ack=0, cnt_done=0, wb_adr=0x02000600, addr_captured=0, M_AXI_arvalid=0
# [765000] wb2axi_read: wb_adr changed: 0x02000600 -> 0x01000300 (cycle 9, state=0, cnt_done=0)
# [765000] wb2axi_read: Cycle 9 - wb_cyc=1, wb_ack=0, cnt_done=0, wb_adr=0x01000300, addr_captured=0, M_AXI_arvalid=0
# [775000] wb2axi_read: wb_adr changed: 0x01000300 -> 0x00800180 (cycle 10, state=0, cnt_done=0)
# [775000] wb2axi_read: Cycle 10 - wb_cyc=1, wb_ack=0, cnt_done=0, wb_adr=0x00800180, addr_captured=0, M_AXI_arvalid=0
# [785000] wb2axi_read: wb_adr changed: 0x00800180 -> 0x004000c0 (cycle 11, state=0, cnt_done=0)
# [785000] wb2axi_read: Cycle 11 - wb_cyc=1, wb_ack=0, cnt_done=0, wb_adr=0x004000c0, addr_captured=0, M_AXI_arvalid=0
# [795000] wb2axi_read: wb_adr changed: 0x004000c0 -> 0x00200060 (cycle 12, state=0, cnt_done=0)
# [795000] wb2axi_read: Cycle 12 - wb_cyc=1, wb_ack=0, cnt_done=0, wb_adr=0x00200060, addr_captured=0, M_AXI_arvalid=0
# [805000] wb2axi_read: wb_adr changed: 0x00200060 -> 0x00100030 (cycle 13, state=0, cnt_done=0)
# [805000] wb2axi_read: Cycle 13 - wb_cyc=1, wb_ack=0, cnt_done=0, wb_adr=0x00100030, addr_captured=0, M_AXI_arvalid=0
# [815000] wb2axi_read: wb_adr changed: 0x00100030 -> 0x00080018 (cycle 14, state=0, cnt_done=0)
# [815000] wb2axi_read: Cycle 14 - wb_cyc=1, wb_ack=0, cnt_done=0, wb_adr=0x00080018, addr_captured=0, M_AXI_arvalid=0
# [825000] wb2axi_read: wb_adr changed: 0x00080018 -> 0x0004000c (cycle 15, state=0, cnt_done=0)
# [825000] wb2axi_read: Cycle 15 - wb_cyc=1, wb_ack=0, cnt_done=0, wb_adr=0x0004000c, addr_captured=0, M_AXI_arvalid=0
# [835000] wb2axi_read: wb_adr changed: 0x0004000c -> 0x00020006 (cycle 16, state=0, cnt_done=0)
# [835000] wb2axi_read: Cycle 16 - wb_cyc=1, wb_ack=0, cnt_done=0, wb_adr=0x00020006, addr_captured=0, M_AXI_arvalid=0
# [845000] wb2axi_read: wb_adr changed: 0x00020006 -> 0x00010003 (cycle 17, state=0, cnt_done=0)
# [845000] wb2axi_read: Cycle 17 - wb_cyc=1, wb_ack=0, cnt_done=0, wb_adr=0x00010003, addr_captured=0, M_AXI_arvalid=0
# [855000] wb2axi_read: wb_adr changed: 0x00010003 -> 0x80008001 (cycle 18, state=0, cnt_done=0)
# [855000] wb2axi_read: Cycle 18 - wb_cyc=1, wb_ack=0, cnt_done=0, wb_adr=0x80008001, addr_captured=0, M_AXI_arvalid=0
# [865000] wb2axi_read: wb_adr changed: 0x80008001 -> 0xc0004000 (cycle 19, state=0, cnt_done=0)
# [865000] wb2axi_read: Cycle 19 - wb_cyc=1, wb_ack=0, cnt_done=0, wb_adr=0xc0004000, addr_captured=0, M_AXI_arvalid=0
# [875000] wb2axi_read: wb_adr changed: 0xc0004000 -> 0x60002000 (cycle 20, state=0, cnt_done=0)
# [875000] wb2axi_read: Cycle 20 - wb_cyc=1, wb_ack=0, cnt_done=0, wb_adr=0x60002000, addr_captured=0, M_AXI_arvalid=0
# [885000] wb2axi_read: wb_adr changed: 0x60002000 -> 0x30001000 (cycle 21, state=0, cnt_done=0)
# [885000] wb2axi_read: Cycle 21 - wb_cyc=1, wb_ack=0, cnt_done=0, wb_adr=0x30001000, addr_captured=0, M_AXI_arvalid=0
# [895000] wb2axi_read: wb_adr changed: 0x30001000 -> 0x18000800 (cycle 22, state=0, cnt_done=0)
# [895000] wb2axi_read: Cycle 22 - wb_cyc=1, wb_ack=0, cnt_done=0, wb_adr=0x18000800, addr_captured=0, M_AXI_arvalid=0
# [905000] wb2axi_read: wb_adr changed: 0x18000800 -> 0x0c000400 (cycle 23, state=0, cnt_done=0)
# [905000] wb2axi_read: Cycle 23 - wb_cyc=1, wb_ack=0, cnt_done=0, wb_adr=0x0c000400, addr_captured=0, M_AXI_arvalid=0
# [915000] wb2axi_read: wb_adr changed: 0x0c000400 -> 0x06000200 (cycle 24, state=0, cnt_done=0)
# [915000] wb2axi_read: Cycle 24 - wb_cyc=1, wb_ack=0, cnt_done=0, wb_adr=0x06000200, addr_captured=0, M_AXI_arvalid=0
# [925000] wb2axi_read: wb_adr changed: 0x06000200 -> 0x03000100 (cycle 25, state=0, cnt_done=0)
# [925000] wb2axi_read: Cycle 25 - wb_cyc=1, wb_ack=0, cnt_done=0, wb_adr=0x03000100, addr_captured=0, M_AXI_arvalid=0
# [935000] wb2axi_read: wb_adr changed: 0x03000100 -> 0x01800080 (cycle 26, state=0, cnt_done=0)
# [935000] wb2axi_read: Cycle 26 - wb_cyc=1, wb_ack=0, cnt_done=0, wb_adr=0x01800080, addr_captured=0, M_AXI_arvalid=0
# [945000] wb2axi_read: wb_adr changed: 0x01800080 -> 0x00c00040 (cycle 27, state=0, cnt_done=0)
# [945000] wb2axi_read: Cycle 27 - wb_cyc=1, wb_ack=0, cnt_done=0, wb_adr=0x00c00040, addr_captured=0, M_AXI_arvalid=0
# [955000] wb2axi_read: wb_adr changed: 0x00c00040 -> 0x00600020 (cycle 28, state=0, cnt_done=0)
# [955000] wb2axi_read: Cycle 28 - wb_cyc=1, wb_ack=0, cnt_done=0, wb_adr=0x00600020, addr_captured=0, M_AXI_arvalid=0
# [965000] wb2axi_read: wb_adr changed: 0x00600020 -> 0x00300010 (cycle 29, state=0, cnt_done=0)
# [965000] wb2axi_read: Cycle 29 - wb_cyc=1, wb_ack=0, cnt_done=0, wb_adr=0x00300010, addr_captured=0, M_AXI_arvalid=0
# [975000] wb2axi_read: wb_adr changed: 0x00300010 -> 0x00180008 (cycle 30, state=0, cnt_done=1)
# [975000] wb2axi_read: cnt_done ASSERTED! wb_cyc=1, wb_adr=0x00180008, cycle=30
# [975000] wb2axi_read: Cycle 30 - wb_cyc=1, wb_ack=0, cnt_done=1, wb_adr=0x00180008, addr_captured=0, M_AXI_arvalid=0
# [985000] wb2axi_read: wb_adr changed: 0x00180008 -> 0x000c0004 (cycle 31, state=0, cnt_done=0)
# [985000] wb2axi_read: Cycle 31 - wb_cyc=1, wb_ack=0, cnt_done=0, wb_adr=0x000c0004, addr_captured=0, M_AXI_arvalid=0
# [985000] wb2axi_read: Key cycle 31 - wb_adr=0x000c0004 (binary: 00000000000011000000000000000100)
# [985000] wb2axi_read: Capturing address (1 cycle after cnt_done): wb_adr=0x000c0004, masked=0x000c0004 (cycle 31)
# [995000] wb2axi_read: Status - wb_cyc=1, cnt_done=0, addr_captured=1, wb_adr=0x000c0004
# [995000] wb2axi_read: Cycle 32 - wb_cyc=1, wb_ack=0, cnt_done=0, wb_adr=0x000c0004, addr_captured=1, M_AXI_arvalid=1
# [995000] wb2axi_read: Key cycle 32 - wb_adr=0x000c0004 (binary: 00000000000011000000000000000100)
# [1005000] Memory Read: addr=0x000c0004, mem_idx=1, data=0x00a00113
# [1005000] Instruction Fetch: Address = 0x000c0004
# [1015000] Memory Read: addr=0x000c0004, mem_idx=1, data=0x00a00113
# [1015000] Instruction Read: Data = 0x00a00113
# [1035000] wb2axi_read: wb_cyc FALLING EDGE! cycle_count=33, addr_captured=1
# [1225000] wb2axi_read: wb_cyc RISING EDGE! wb_adr=0x00080006, cnt_done=0
# [1225000] wb2axi_read: wb_cyc ASSERTED! wb_adr=0x00080006, cnt_done=0
# [1225000] wb2axi_read: wb_adr changed: 0x000c0004 -> 0x00080006 (cycle 0, state=0, cnt_done=0)
# [1225000] wb2axi_read: Cycle 0 - wb_cyc=1, wb_ack=0, cnt_done=0, wb_adr=0x00080006, addr_captured=0, M_AXI_arvalid=0
# [1225000] wb2axi_read: Key cycle 0 - wb_adr=0x00080006 (binary: 00000000000010000000000000000110)
# [1235000] wb2axi_read: wb_adr changed: 0x00080006 -> 0x00040003 (cycle 1, state=0, cnt_done=0)
# [1235000] wb2axi_read: Cycle 1 - wb_cyc=1, wb_ack=0, cnt_done=0, wb_adr=0x00040003, addr_captured=0, M_AXI_arvalid=0
# [1245000] wb2axi_read: wb_adr changed: 0x00040003 -> 0x00020001 (cycle 2, state=0, cnt_done=0)
# [1245000] wb2axi_read: Cycle 2 - wb_cyc=1, wb_ack=0, cnt_done=0, wb_adr=0x00020001, addr_captured=0, M_AXI_arvalid=0
# [1255000] wb2axi_read: wb_adr changed: 0x00020001 -> 0x00010000 (cycle 3, state=0, cnt_done=0)
# [1255000] wb2axi_read: Cycle 3 - wb_cyc=1, wb_ack=0, cnt_done=0, wb_adr=0x00010000, addr_captured=0, M_AXI_arvalid=0
# [1265000] wb2axi_read: wb_adr changed: 0x00010000 -> 0x80008000 (cycle 4, state=0, cnt_done=0)
# [1265000] wb2axi_read: Cycle 4 - wb_cyc=1, wb_ack=0, cnt_done=0, wb_adr=0x80008000, addr_captured=0, M_AXI_arvalid=0
# [1275000] wb2axi_read: wb_adr changed: 0x80008000 -> 0x40004000 (cycle 5, state=0, cnt_done=0)
# [1275000] wb2axi_read: Cycle 5 - wb_cyc=1, wb_ack=0, cnt_done=0, wb_adr=0x40004000, addr_captured=0, M_AXI_arvalid=0
# [1285000] wb2axi_read: wb_adr changed: 0x40004000 -> 0x20002000 (cycle 6, state=0, cnt_done=0)
# [1285000] wb2axi_read: Cycle 6 - wb_cyc=1, wb_ack=0, cnt_done=0, wb_adr=0x20002000, addr_captured=0, M_AXI_arvalid=0
# [1295000] wb2axi_read: wb_adr changed: 0x20002000 -> 0x10001000 (cycle 7, state=0, cnt_done=0)
# [1295000] wb2axi_read: Cycle 7 - wb_cyc=1, wb_ack=0, cnt_done=0, wb_adr=0x10001000, addr_captured=0, M_AXI_arvalid=0
# [1305000] wb2axi_read: wb_adr changed: 0x10001000 -> 0x08000800 (cycle 8, state=0, cnt_done=0)
# [1305000] wb2axi_read: Cycle 8 - wb_cyc=1, wb_ack=0, cnt_done=0, wb_adr=0x08000800, addr_captured=0, M_AXI_arvalid=0
# [1315000] wb2axi_read: wb_adr changed: 0x08000800 -> 0x04000400 (cycle 9, state=0, cnt_done=0)
# [1315000] wb2axi_read: Cycle 9 - wb_cyc=1, wb_ack=0, cnt_done=0, wb_adr=0x04000400, addr_captured=0, M_AXI_arvalid=0
# [1325000] wb2axi_read: wb_adr changed: 0x04000400 -> 0x02000200 (cycle 10, state=0, cnt_done=0)
# [1325000] wb2axi_read: Cycle 10 - wb_cyc=1, wb_ack=0, cnt_done=0, wb_adr=0x02000200, addr_captured=0, M_AXI_arvalid=0
# [1335000] wb2axi_read: wb_adr changed: 0x02000200 -> 0x01000100 (cycle 11, state=0, cnt_done=0)
# [1335000] wb2axi_read: Cycle 11 - wb_cyc=1, wb_ack=0, cnt_done=0, wb_adr=0x01000100, addr_captured=0, M_AXI_arvalid=0
# [1345000] wb2axi_read: wb_adr changed: 0x01000100 -> 0x00800080 (cycle 12, state=0, cnt_done=0)
# [1345000] wb2axi_read: Cycle 12 - wb_cyc=1, wb_ack=0, cnt_done=0, wb_adr=0x00800080, addr_captured=0, M_AXI_arvalid=0
# [1355000] wb2axi_read: wb_adr changed: 0x00800080 -> 0x00400040 (cycle 13, state=0, cnt_done=0)
# [1355000] wb2axi_read: Cycle 13 - wb_cyc=1, wb_ack=0, cnt_done=0, wb_adr=0x00400040, addr_captured=0, M_AXI_arvalid=0
# [1365000] wb2axi_read: wb_adr changed: 0x00400040 -> 0x00200020 (cycle 14, state=0, cnt_done=0)
# [1365000] wb2axi_read: Cycle 14 - wb_cyc=1, wb_ack=0, cnt_done=0, wb_adr=0x00200020, addr_captured=0, M_AXI_arvalid=0
# [1375000] wb2axi_read: wb_adr changed: 0x00200020 -> 0x00100010 (cycle 15, state=0, cnt_done=0)
# [1375000] wb2axi_read: Cycle 15 - wb_cyc=1, wb_ack=0, cnt_done=0, wb_adr=0x00100010, addr_captured=0, M_AXI_arvalid=0
# [1385000] wb2axi_read: wb_adr changed: 0x00100010 -> 0x00080008 (cycle 16, state=0, cnt_done=0)
# [1385000] wb2axi_read: Cycle 16 - wb_cyc=1, wb_ack=0, cnt_done=0, wb_adr=0x00080008, addr_captured=0, M_AXI_arvalid=0
# [1395000] wb2axi_read: wb_adr changed: 0x00080008 -> 0x00040004 (cycle 17, state=0, cnt_done=0)
# [1395000] wb2axi_read: Cycle 17 - wb_cyc=1, wb_ack=0, cnt_done=0, wb_adr=0x00040004, addr_captured=0, M_AXI_arvalid=0
# [1405000] wb2axi_read: wb_adr changed: 0x00040004 -> 0x00020002 (cycle 18, state=0, cnt_done=0)
# [1405000] wb2axi_read: Cycle 18 - wb_cyc=1, wb_ack=0, cnt_done=0, wb_adr=0x00020002, addr_captured=0, M_AXI_arvalid=0
# [1415000] wb2axi_read: wb_adr changed: 0x00020002 -> 0x00010001 (cycle 19, state=0, cnt_done=0)
# [1415000] wb2axi_read: Cycle 19 - wb_cyc=1, wb_ack=0, cnt_done=0, wb_adr=0x00010001, addr_captured=0, M_AXI_arvalid=0
# [1425000] wb2axi_read: wb_adr changed: 0x00010001 -> 0x80008000 (cycle 20, state=0, cnt_done=0)
# [1425000] wb2axi_read: Cycle 20 - wb_cyc=1, wb_ack=0, cnt_done=0, wb_adr=0x80008000, addr_captured=0, M_AXI_arvalid=0
# [1435000] wb2axi_read: wb_adr changed: 0x80008000 -> 0x40004000 (cycle 21, state=0, cnt_done=0)
# [1435000] wb2axi_read: Cycle 21 - wb_cyc=1, wb_ack=0, cnt_done=0, wb_adr=0x40004000, addr_captured=0, M_AXI_arvalid=0
# [1445000] wb2axi_read: wb_adr changed: 0x40004000 -> 0x20002000 (cycle 22, state=0, cnt_done=0)
# [1445000] wb2axi_read: Cycle 22 - wb_cyc=1, wb_ack=0, cnt_done=0, wb_adr=0x20002000, addr_captured=0, M_AXI_arvalid=0
# [1455000] wb2axi_read: wb_adr changed: 0x20002000 -> 0x10001000 (cycle 23, state=0, cnt_done=0)
# [1455000] wb2axi_read: Cycle 23 - wb_cyc=1, wb_ack=0, cnt_done=0, wb_adr=0x10001000, addr_captured=0, M_AXI_arvalid=0
# [1465000] wb2axi_read: wb_adr changed: 0x10001000 -> 0x08000800 (cycle 24, state=0, cnt_done=0)
# [1465000] wb2axi_read: Cycle 24 - wb_cyc=1, wb_ack=0, cnt_done=0, wb_adr=0x08000800, addr_captured=0, M_AXI_arvalid=0
# [1475000] wb2axi_read: wb_adr changed: 0x08000800 -> 0x04000400 (cycle 25, state=0, cnt_done=0)
# [1475000] wb2axi_read: Cycle 25 - wb_cyc=1, wb_ack=0, cnt_done=0, wb_adr=0x04000400, addr_captured=0, M_AXI_arvalid=0
# [1485000] wb2axi_read: wb_adr changed: 0x04000400 -> 0x02000200 (cycle 26, state=0, cnt_done=0)
# [1485000] wb2axi_read: Cycle 26 - wb_cyc=1, wb_ack=0, cnt_done=0, wb_adr=0x02000200, addr_captured=0, M_AXI_arvalid=0
# [1495000] wb2axi_read: wb_adr changed: 0x02000200 -> 0x01000100 (cycle 27, state=0, cnt_done=0)
# [1495000] wb2axi_read: Cycle 27 - wb_cyc=1, wb_ack=0, cnt_done=0, wb_adr=0x01000100, addr_captured=0, M_AXI_arvalid=0
# [1505000] wb2axi_read: wb_adr changed: 0x01000100 -> 0x00800080 (cycle 28, state=0, cnt_done=0)
# [1505000] wb2axi_read: Cycle 28 - wb_cyc=1, wb_ack=0, cnt_done=0, wb_adr=0x00800080, addr_captured=0, M_AXI_arvalid=0
# [1515000] wb2axi_read: wb_adr changed: 0x00800080 -> 0x00400040 (cycle 29, state=0, cnt_done=0)
# [1515000] wb2axi_read: Cycle 29 - wb_cyc=1, wb_ack=0, cnt_done=0, wb_adr=0x00400040, addr_captured=0, M_AXI_arvalid=0
# [1525000] wb2axi_read: wb_adr changed: 0x00400040 -> 0x00200020 (cycle 30, state=0, cnt_done=1)
# [1525000] wb2axi_read: cnt_done ASSERTED! wb_cyc=1, wb_adr=0x00200020, cycle=30
# [1525000] wb2axi_read: Cycle 30 - wb_cyc=1, wb_ack=0, cnt_done=1, wb_adr=0x00200020, addr_captured=0, M_AXI_arvalid=0
# [1535000] wb2axi_read: wb_adr changed: 0x00200020 -> 0x00100010 (cycle 31, state=0, cnt_done=0)
# [1535000] wb2axi_read: Cycle 31 - wb_cyc=1, wb_ack=0, cnt_done=0, wb_adr=0x00100010, addr_captured=0, M_AXI_arvalid=0
# [1535000] wb2axi_read: Key cycle 31 - wb_adr=0x00100010 (binary: 00000000000100000000000000010000)
# [1535000] wb2axi_read: Capturing address (1 cycle after cnt_done): wb_adr=0x00100010, masked=0x00100010 (cycle 31)
# [1545000] wb2axi_read: Status - wb_cyc=1, cnt_done=0, addr_captured=1, wb_adr=0x00100010
# [1545000] wb2axi_read: Cycle 32 - wb_cyc=1, wb_ack=0, cnt_done=0, wb_adr=0x00100010, addr_captured=1, M_AXI_arvalid=1
# [1545000] wb2axi_read: Key cycle 32 - wb_adr=0x00100010 (binary: 00000000000100000000000000010000)
# [1555000] Memory Read: addr=0x00100010, mem_idx=4, data=0x00000013
# [1555000] Instruction Fetch: Address = 0x00100010
# [1565000] Memory Read: addr=0x00100010, mem_idx=4, data=0x00000013
# [1565000] Instruction Read: Data = 0x00000013
# [1585000] wb2axi_read: wb_cyc FALLING EDGE! cycle_count=33, addr_captured=1
# [1775000] wb2axi_read: wb_cyc RISING EDGE! wb_adr=0x000e0008, cnt_done=0
# [1775000] wb2axi_read: wb_cyc ASSERTED! wb_adr=0x000e0008, cnt_done=0
# [1775000] wb2axi_read: wb_adr changed: 0x00100010 -> 0x000e0008 (cycle 0, state=0, cnt_done=0)
# [1775000] wb2axi_read: Cycle 0 - wb_cyc=1, wb_ack=0, cnt_done=0, wb_adr=0x000e0008, addr_captured=0, M_AXI_arvalid=0
# [1775000] wb2axi_read: Key cycle 0 - wb_adr=0x000e0008 (binary: 00000000000011100000000000001000)
